
Elf file type is EXEC (Executable file)
Entry point 0x2011f4
There are 5 program headers, starting at offset 64

Program Headers:
  Type           Offset   VirtAddr           PhysAddr           FileSiz  MemSiz   Flg Align
  PHDR           0x000040 0x0000000000200040 0x0000000000200040 0x000150 0x000150 R   0x8
  INTERP         0x000190 0x0000000000200190 0x0000000000200190 0x00001c 0x00001c R   0x1
      [Requesting program interpreter: /lib64/ld-linux-x86-64.so.2]
  LOAD           0x000000 0x0000000000200000 0x0000000000200000 0x0001f4 0x0001f4 R   0x1000
  GNU_EH_FRAME   0x0001ac 0x00000000002001ac 0x00000000002001ac 0x000014 0x000014 R   0x4
  GNU_STACK      0x000000 0x0000000000000000 0x0000000000000000 0x000000 0x000000 RW  0

 Section to Segment mapping:
  Segment Sections...
   00     
   01     <corrupt> 
   02     <corrupt> <corrupt> <corrupt> 
   03     <corrupt> 
   04     
