
Elf file type is DYN (Shared object file)
Entry point 0x1210
There are 6 program headers, starting at offset 64

Program Headers:
  Type           Offset   VirtAddr           PhysAddr           FileSiz  MemSiz   Flg Align
  PHDR           0x000040 0x0000000000000040 0x0000000000000040 0x000188 0x000188 R   0x8
  LOAD           0x000000 0x0000000000000000 0x0000000000000000 0x00020d 0x00020d R   0x1000
  LOAD           0x000210 0x0000000000002210 0x0000000000002210 0x000070 0x000070 RW  0x1000
  DYNAMIC        0x000210 0x0000000000002210 0x0000000000002210 0x000070 0x000070 RW  0x8
  GNU_RELRO      0x000210 0x0000000000002210 0x0000000000002210 0x000070 0x000df0 R   0x1
  GNU_STACK      0x000000 0x0000000000000000 0x0000000000000000 0x000000 0x000000 RW  0

 Section to Segment mapping:
  Segment Sections...
   00     
   01     .dynsym .gnu.hash .hash .dynstr 
   02     .dynamic 
   03     .dynamic 
   04     .dynamic 
   05     
